{
    "dev":
    {
        "baseUrl": "https://aki-vacc-ca-dev.akinox.dev/PreuveVaccinale"
    },
    "acpt":
    { 
        "baseUrl": "https://aki-vacc-ca-acpt.akinox.dev/PreuveVaccinale"
    },
    "stg":
    { 
        "baseUrl": "https://aki-vacc-ca-stg.akinox.dev/PreuveVaccinale"
    }
}